#VRML V2.0 utf8

DEF	thanduoi Transform {
children [
	Transform {
	scale 1 0.2 1
	translation	0 0 0
	children [
		Shape {
			geometry Sphere	{radius 0.1}
			appearance Appearance {
				material Material {
				diffuseColor 0 1 0
				}
			}
		}
	]
}

	Transform {translation 0 0 0.8 children [Inline {url "canhquat.wrl"}]}
	Transform {translation 0.69 0 -0.41 rotation 0 1 0 -4.1866666667 children [Inline {url "canhquat.wrl"}]}
	Transform {translation -0.69 0 -0.41 rotation 0 1 0 4.1866666667 children [Inline {url "canhquat.wrl"}]}
	DEF	TS TimeSensor {
		startTime 0 
		cycleInterval 0.2
		stopTime 500
		loop TRUE
	}
	DEF	OI OrientationInterpolator {
		key	[0, .33, .66, 1]
		keyValue [0 1 0 0, 0 1 0 2.09, 0 1 0 4.18, 0 1 0 6.28]
	}
]
}



DEF	thantren Transform {
	children [
		Transform {
			translation	0 0.16 0
			children [
				Shape {
					geometry Cylinder	{radius 0.01 height 0.3}
					appearance Appearance {
						material Material {
						diffuseColor 0 1 0
						}
					}
				}
			]
		}
		Transform {
			rotation 1 0 0 3.14
			translation	0 0.34 0
			children [
				Shape {
					geometry Cone	{bottomRadius 0.05 height 0.1}
					appearance Appearance {
						material Material {
						diffuseColor 0 1 0
						}
					}
				}
			]
		}

		Transform {
			translation	0 0.075 0
			children [
				Shape {
					geometry Cone	{bottomRadius 0.05 height 0.1}
					appearance Appearance {
						material Material {
						diffuseColor 0 1 0
						}
					}
				}
			]
		}
	]
}

DEF	congtac Transform {
	translation	-1.45 -1 0
	children [
		Shape {
			geometry Box {size 0.05 0.1 0.05}
			appearance Appearance {
				texture	ImageTexture {url "C:\Users\hiep2\Desktop\quat tran\congtacquat.png"}
				material Material {
				diffuseColor 0.9 0.9 0.9
				}
			}
		}
		DEF	T1 TouchSensor {}
		DEF	T2 TouchSensor {}
	]
}

ROUTE T1.touchTime TO TS.startTime
ROUTE TS.fraction_changed TO OI.set_fraction
ROUTE OI.value_changed TO thanduoi.rotation
ROUTE T2.touchTime TO TS.stopTime